[gd_scene load_steps=4 format=2]

[ext_resource path="res://assets/obstacle.png" type="Texture" id=1]
[ext_resource path="res://scripts/mover.gd" type="Script" id=2]

[sub_resource type="RectangleShape2D" id=1]
extents = Vector2( 88.4757, 13.8866 )

[node name="mover" type="StaticBody2D"]
script = ExtResource( 2 )

[node name="sprite" type="Sprite" parent="."]
scale = Vector2( 0.3, 0.3 )
texture = ExtResource( 1 )

[node name="shape" type="CollisionShape2D" parent="."]
shape = SubResource( 1 )
